{
  "pagination": {
    "total_results": 3,
    "total_pages": 2,
    "first": {
      "href": "http://somewhere.org/v3/apps?page=1&per_page=2"
    },
    "last": {
      "href": "http://somewhere.org/v3/apps?page=2&per_page=2"
    },
    "next": null,
    "previous": null
  },
  "resources": [
    {
      "guid": "1cb006ee-fb05-47e1-b541-c34179ddc446",
      "name": "my_app",
      "state": "STARTED",
      "created_at": "2016-03-17T21:41:30Z",
      "updated_at": "2016-03-18T11:32:30Z",
      "lifecycle": {
        "type": "buildpack",
        "data": {
          "buildpacks": [
            "java_buildpack"
          ],
          "stack": "cflinuxfs2"
        }
      },
      "relationships": {
        "space": {
          "data": {
            "guid": "2f35885d-0c9d-4423-83ad-fd05066f8576"
          }
        }
      },
      "links": {
        "self": {
          "href": "http://somewhere.org/v3/apps/1cb006ee-fb05-47e1-b541-c34179ddc446"
        },
        "space": {
          "href": "http://somewhere.org/v3/spaces/2f35885d-0c9d-4423-83ad-fd05066f8576"
        },
        "processes": {
          "href": "http://somewhere.org/v3/apps/1cb006ee-fb05-47e1-b541-c34179ddc446/processes"
        },
        "route_mappings": {
          "href": "http://somewhere.org/v3/apps/1cb006ee-fb05-47e1-b541-c34179ddc446/route_mappings"
        },
        "packages": {
          "href": "http://somewhere.org/v3/apps/1cb006ee-fb05-47e1-b541-c34179ddc446/packages"
        },
        "environment_variables": {
          "href": "http://somewhere.org/v3/apps/1cb006ee-fb05-47e1-b541-c34179ddc446/environment_variables"
        },
        "current_droplet": {
          "href": "http://somewhere.org/v3/apps/1cb006ee-fb05-47e1-b541-c34179ddc446/droplets/current"
        },
        "droplets": {
          "href": "http://somewhere.org/v3/apps/1cb006ee-fb05-47e1-b541-c34179ddc446/droplets"
        },
        "tasks": {
          "href": "http://somewhere.org/v3/apps/1cb006ee-fb05-47e1-b541-c34179ddc446/tasks"
        },
        "start": {
          "href": "http://somewhere.org/v3/apps/1cb006ee-fb05-47e1-b541-c34179ddc446/actions/start",
          "method": "POST"
        },
        "stop": {
          "href": "http://somewhere.org/v3/apps/1cb006ee-fb05-47e1-b541-c34179ddc446/actions/stop",
          "method": "POST"
        }
      },
      "metadata": {
        "labels": {}
      }
    },
    {
      "guid": "02b4ec9b-94c7-4468-9c23-4e906191a0f8",
      "name": "my_app2",
      "state": "STOPPED",
      "created_at": "1970-01-01T00:00:02Z",
      "updated_at": "2016-06-08T16:41:26Z",
      "lifecycle": {
        "type": "buildpack",
        "data": {
          "buildpacks": [
            "ruby_buildpack"
          ],
          "stack": "cflinuxfs2"
        }
      },
      "relationships": {
        "space": {
          "data": {
            "guid": "2f35885d-0c9d-4423-83ad-fd05066f8576"
          }
        }
      },
      "links": {
        "self": {
          "href": "http://somewhere.org/v3/apps/02b4ec9b-94c7-4468-9c23-4e906191a0f8"
        },
        "space": {
          "href": "http://somewhere.org/v3/spaces/2f35885d-0c9d-4423-83ad-fd05066f8576"
        },
        "processes": {
          "href": "http://somewhere.org/v3/apps/02b4ec9b-94c7-4468-9c23-4e906191a0f8/processes"
        },
        "route_mappings": {
          "href": "http://somewhere.org/v3/apps/02b4ec9b-94c7-4468-9c23-4e906191a0f8/route_mappings"
        },
        "packages": {
          "href": "http://somewhere.org/v3/apps/02b4ec9b-94c7-4468-9c23-4e906191a0f8/packages"
        },
        "environment_variables": {
          "href": "http://somewhere.org/v3/apps/02b4ec9b-94c7-4468-9c23-4e906191a0f8/environment_variables"
        },
        "current_droplet": {
          "href": "http://somewhere.org/v3/apps/02b4ec9b-94c7-4468-9c23-4e906191a0f8/droplets/current"
        },
        "droplets": {
          "href": "http://somewhere.org/v3/apps/02b4ec9b-94c7-4468-9c23-4e906191a0f8/droplets"
        },
        "tasks": {
          "href": "http://somewhere.org/v3/apps/02b4ec9b-94c7-4468-9c23-4e906191a0f8/tasks"
        },
        "start": {
          "href": "http://somewhere.org/v3/apps/02b4ec9b-94c7-4468-9c23-4e906191a0f8/actions/start",
          "method": "POST"
        },
        "stop": {
          "href": "http://somewhere.org/v3/apps/02b4ec9b-94c7-4468-9c23-4e906191a0f8/actions/stop",
          "method": "POST"
        }
      },
      "metadata": {
        "labels": {}
      }
    }
  ],
  "included": {
    "spaces": [
      {
        "guid": "2f35885d-0c9d-4423-83ad-fd05066f8576",
        "created_at": "2017-02-01T01:33:58Z",
        "updated_at": "2017-02-01T01:33:58Z",
        "name": "my_space",
        "relationships": {
          "organization": {
            "data": {
              "guid": "e00705b9-7b42-4561-ae97-2520399d2133"
            }
          }
        },
        "links": {
          "self": {
            "href": "http://somewhere.org/v3/spaces/2f35885d-0c9d-4423-83ad-fd05066f8576"
          },
          "organization": {
            "href": "http://somewhere.org/v3/organizations/e00705b9-7b42-4561-ae97-2520399d2133"
          }
        },
        "metadata": {
          "labels": {}
        }
      }
    ]
  }
}