{
  "pagination": {
    "total_results": 3,
    "total_pages": 2,
    "first": {
      "href": "http://somewhere.org/fake"
    },
    "last": {
      "href": "http://somewhere.org/fake/last?page=2&per_page=2"
    },
    "next": null,
    "previous": {
      "href": "http://somewhere.org/fake"
    }
  },
  "resources": [
    {
      "guid": "1cb006ee-fb05-47e1-b541-c34179ddc447",
      "name": "my_app3",
      "state": "STARTED",
      "created_at": "2016-03-17T21:41:30Z",
      "updated_at": "2016-03-18T11:32:30Z",
      "lifecycle": {
        "type": "buildpack",
        "data": {
          "buildpacks": [
            "java_buildpack"
          ],
          "stack": "cflinuxfs2"
        }
      },
      "relationships": {
        "space": {
          "data": {
            "guid": "2f35885d-0c9d-4423-83ad-fd05066f8576"
          }
        }
      },
      "links": {
        "self": {
          "href": "http://somewhere.org/v3/apps/1cb006ee-fb05-47e1-b541-c34179ddc447"
        },
        "space": {
          "href": "http://somewhere.org/v3/spaces/2f35885d-0c9d-4423-83ad-fd05066f8576"
        },
        "processes": {
          "href": "http://somewhere.org/v3/apps/1cb006ee-fb05-47e1-b541-c34179ddc447/processes"
        },
        "route_mappings": {
          "href": "http://somewhere.org/v3/apps/1cb006ee-fb05-47e1-b541-c34179ddc447/route_mappings"
        },
        "packages": {
          "href": "http://somewhere.org/v3/apps/1cb006ee-fb05-47e1-b541-c34179ddc447/packages"
        },
        "environment_variables": {
          "href": "http://somewhere.org/v3/apps/1cb006ee-fb05-47e1-b541-c34179ddc447/environment_variables"
        },
        "current_droplet": {
          "href": "http://somewhere.org/v3/apps/1cb006ee-fb05-47e1-b541-c34179ddc447/droplets/current"
        },
        "droplets": {
          "href": "http://somewhere.org/v3/apps/1cb006ee-fb05-47e1-b541-c34179ddc447/droplets"
        },
        "tasks": {
          "href": "http://somewhere.org/v3/apps/1cb006ee-fb05-47e1-b541-c34179ddc447/tasks"
        },
        "start": {
          "href": "http://somewhere.org/v3/apps/1cb006ee-fb05-47e1-b541-c34179ddc447/actions/start",
          "method": "POST"
        },
        "stop": {
          "href": "http://somewhere.org/v3/apps/1cb006ee-fb05-47e1-b541-c34179ddc447/actions/stop",
          "method": "POST"
        }
      },
      "metadata": {
        "labels": {}
      }
    },
    {
      "guid": "02b4ec9b-94c7-4468-9c23-4e906191a0f9",
      "name": "my_app4",
      "state": "STOPPED",
      "created_at": "1970-01-01T00:00:02Z",
      "updated_at": "2016-06-08T16:41:26Z",
      "lifecycle": {
        "type": "buildpack",
        "data": {
          "buildpacks": [
            "ruby_buildpack"
          ],
          "stack": "cflinuxfs2"
        }
      },
      "relationships": {
        "space": {
          "data": {
            "guid": "2f35885d-0c9d-4423-83ad-fd05066f8576"
          }
        }
      },
      "links": {
        "self": {
          "href": "http://somewhere.org/v3/apps/02b4ec9b-94c7-4468-9c23-4e906191a0f9"
        },
        "space": {
          "href": "http://somewhere.org/v3/spaces/2f35885d-0c9d-4423-83ad-fd05066f8576"
        },
        "processes": {
          "href": "http://somewhere.org/v3/apps/02b4ec9b-94c7-4468-9c23-4e906191a0f9/processes"
        },
        "route_mappings": {
          "href": "http://somewhere.org/v3/apps/02b4ec9b-94c7-4468-9c23-4e906191a0f9/route_mappings"
        },
        "packages": {
          "href": "http://somewhere.org/v3/apps/02b4ec9b-94c7-4468-9c23-4e906191a0f9/packages"
        },
        "environment_variables": {
          "href": "http://somewhere.org/v3/apps/02b4ec9b-94c7-4468-9c23-4e906191a0f9/environment_variables"
        },
        "current_droplet": {
          "href": "http://somewhere.org/v3/apps/02b4ec9b-94c7-4468-9c23-4e906191a0f9/droplets/current"
        },
        "droplets": {
          "href": "http://somewhere.org/v3/apps/02b4ec9b-94c7-4468-9c23-4e906191a0f9/droplets"
        },
        "tasks": {
          "href": "http://somewhere.org/v3/apps/02b4ec9b-94c7-4468-9c23-4e906191a0f9/tasks"
        },
        "start": {
          "href": "http://somewhere.org/v3/apps/02b4ec9b-94c7-4468-9c23-4e906191a0f9/actions/start",
          "method": "POST"
        },
        "stop": {
          "href": "http://somewhere.org/v3/apps/02b4ec9b-94c7-4468-9c23-4e906191a0f9/actions/stop",
          "method": "POST"
        }
      },
      "metadata": {
        "labels": {}
      }
    }
  ]
}